{
  "INVALID_SUBCOMMAND": "Invalid subcommand",
  "INVALID_ARGUMENTS": "Invalid arguments",
  "INVALID_TARGET": "Invalid broadcast specified",
  "NO_BROADCASTS": "There are no broadcasts present",
  "INVALID_DELAY_TYPE": "Invalid delay type, must be integer",
  "BROADCAST_CREATED": "Broadcast `$name` has been created",
  "BROADCAST_NAME_TAKEN": "A broadcast is already registered with that name"
}
